VAA Team8 Project - Analysis
…
Check number of shipments and fishing weights in 2032 by hscode.

Show the code

hscode_count <-  mc2_edges %>%
  filter(year==2032) %>%
  select(hscode,weightkg) %>%
  group_by(hscode) %>%
  summarise(weightkg = sum(weightkg), count=n(), kg_per_ship=weightkg/count) %>%
  distinct() %>%
  arrange(desc(count))
hscode_count

# A tibble: 3,864 × 4
   hscode   weightkg count kg_per_ship
   <chr>       <dbl> <int>       <dbl>
 1 306170  477204630 24772      19264.
 2 940360  181475405 14794      12267.
 3 870899  479390615 14255      33630.
 4 611020   75241440 13321       5648.
 5 950300  105203525 12274       8571.
 6 304620  216078950  9958      21699.
 7 870323 2578623605  9313     276884.
 8 640299   86822135  8815       9849.
 9 160414  477284410  8762      54472.
10 940161   92760155  8528      10877.
# ℹ 3,854 more rows
…
[1] "hscode with highest weight(kg) per shipment: 721049"

Show the code

hscode_count2034 <-  mc2_edges %>%
  filter(year==2034) %>%
  select(hscode,weightkg) %>%
  group_by(hscode) %>%
  summarise(weightkg = sum(weightkg), count=n(), kg_per_ship=weightkg/count) %>%
  distinct() %>%
  arrange(desc(count))
hscode_count2034

# A tibble: 3,838 × 4
   hscode  weightkg count kg_per_ship
   <chr>      <dbl> <int>       <dbl>
 1 306170 495816060 25546      19409.
 2 950300 163229765 15259      10697.
 3 870899 423348515 14534      29128.
 4 160414 449883290  9612      46804.
 5 841810  82450220  8837       9330.
 6 640299  70849595  8314       8522.
 7 392410  81447950  7775      10476.
 8 940360  87896380  7693      11426.
 9 392690  79033600  7682      10288.
10 640399  57566370  7027       8192.
# ℹ 3,828 more rows
…
Show the code

hscode_count_new <-  mc2_edges_new %>%
  filter(year==2034) %>%
  group_by(hscode) %>%
  summarise(weights = sum(weights)) %>%
  distinct() %>%
  left_join(hscode_count2034%>%select(hscode,count),by='hscode') %>%
  rename(origin_weights=count) %>%
  mutate(new_ori_gap=weights-origin_weights) %>%
  arrange(desc(new_ori_gap)) 
hscode_count_new

# A tibble: 3,901 × 4
   hscode weights origin_weights new_ori_gap
   <chr>    <int>          <int>       <int>
 1 160414    9690           9612          78
 2 841810    8867           8837          30
 3 870899   14556          14534          22
 4 950300   15279          15259          20
 5 392410    7788           7775          13
 6 392690    7695           7682          13
 7 940360    7706           7693          13
 8 640399    7039           7027          12
 9 210690    4809           4798          11
10 870323    6936           6925          11
# ℹ 3,891 more rows
…
